,Camuente,,Antica Pizzeria,,Becerra Camacho,,Ascori Salvatori,,La Bruchetta Pizzeria,
,Ingresos,Egresos,Ingresos,Egresos,Ingresos,Egresos,Ingresos,Egresos,Ingresos,Egresos
1,393222.786,38224.323,1782433.565,1825132.683,1782433.565,1825132.683,5499510.485,780352.028,3935270.174,954454.002
2,92365.016,1842680.819,947936.616,1445255.164,947936.616,1445255.164,7222768.907,1398927.368,3454517.008,70932.255
3,44671.592,580374.781,2060414.535,295209.969,2060414.535,295209.969,127963.902,273213.713,2651698.597,911823.486
4,190099.840,1733980.614,2329990.959,728965.845,2329990.959,728965.845,431087.452,834856.800,2104842.097,216917.470
5,645683.027,338299.098,1580140.462,1528367.616,1580140.462,1528367.616,4360717.085,25297.870,3894037.231,903761.055
6,672631.287,2254988.133,2309456.117,1734387.904,2309456.117,1734387.904,2291943.141,2221431.720,3186990.686,724016.693
7,515395.818,605272.650,695544.201,1453617.519,695544.201,1453617.519,6337860.341,764656.550,2628606.117,642718.609
8,320217.393,2093607.405,1602860.038,955250.597,1602860.038,955250.597,5482833.199,1086746.236,265781.280,803763.563
9,310097.827,896874.965,2861110.308,1232651.057,2861110.308,1232651.057,3413121.279,1613505.189,608436.769,880783.634
10,108741.312,1516065.689,1823979.911,834034.658,1823979.911,834034.658,62851.402,501944.154,789127.845,891130.555
11,369795.483,1243344.648,2460673.589,121790.553,2460673.589,121790.553,4059382.556,2260180.374,2821619.271,1429012.175
12,63971.189,13461.190,320105.175,957409.381,320105.175,957409.381,6120533.296,1914845.091,586747.553,370587.291
IP,310574.381,1096431.193,1731220.456,1092672.745,1731220.456,1092672.745,3784214.420,1139663.091,2243972.886,733325.066
,,,,,,,,,,
13,72800.583,15047.443,1981097.098,1304162.091,1981097.098,1304162.091,3003870.918,374185.768,3536912.035,604425.657
14,311982.079,802433.919,1233934.669,328360.138,1233934.669,328360.138,2353815.259,777857.547,2933159.826,279028.749
15,99141.574,279247.958,2846230.206,1319693.731,2846230.206,1319693.731,4317004.373,712158.524,957697.785,207814.463
16,72550.524,705557.457,2368523.052,437107.426,2368523.052,437107.426,363578.021,1102262.176,2132105.854,1137302.096
17,580983.157,1156845.642,169313.503,1267162.774,169313.503,1267162.774,3397413.360,1484596.497,1055300.282,1314194.261
18,221184.570,1402363.623,2084807.305,1514394.435,2084807.305,1514394.435,2534925.224,1163587.762,2276429.184,112651.185
19,502358.537,2388943.778,1012665.754,1138215.731,1012665.754,1138215.731,3327962.498,1127924.843,3372479.506,753097.656
20,21472.748,350841.409,402350.954,1105448.956,402350.954,1105448.956,2396527.630,160907.799,4217971.784,720089.399
21,779977.485,2070242.358,1376143.871,1069922.303,1376143.871,1069922.303,3497089.386,1697869.069,3110255.722,449493.109
22,465739.498,1793332.759,1685947.273,1007470.890,1685947.273,1007470.890,4782719.022,1307722.147,441603.493,1416592.111
23,215736.709,2126848.917,1278772.251,1711706.995,1278772.251,1711706.995,1286763.406,2338137.267,3383634.295,1159912.732
24,2906.349,1343818.676,157913.441,730385.327,157913.441,730385.327,4942943.270,137381.532,633496.120,836283.702
,278902.818,1202960.328,1383141.615,1077835.900,1383141.615,1077835.900,3017051.031,1032049.244,2337587.157,749240.427
